…
The next step is to process our data so that it is ready for analysis. This process takes a lot of steps, but once it is complete we can start visualizing and modeling out data.

Joining Macrostrat and PBDB

Now that that’s out of the way, let’s start getting out data into shape. An obvious first step is connect the Macrostrat units table to the fossils table.

There are multiple collections occurrences per unit, so I’ll add all the appropriate unit information to each fossil collection. I’m not worrying about units that lack fossils (yet), hence the left join.

collect_unit <- left_join(x = collect_data, y = unit_data, 
                         by = c('unit_id', 'col_id', 't_age', 'b_age')) %>%
  dplyr::select(-(genus_no:taxon_no), refs.y) # redundant/unnecessary

print(collect_unit)

## # A tibble: 8,693 x 48
##    cltn_id cltn_name t_age b_age pbdb_occs unit_id col_id refs.x
##      <dbl> <chr>     <dbl> <dbl>     <dbl>   <dbl>  <dbl>  <dbl>
##  1     228 SS-24, S…  458.  466.         7    2084     58      8
##  2     237 Marathon…  457.  460.         8    2146     59      8
##  3     244 SW Riche…  480.  502.         5    9412    339      8
##  4     246 SW Riche…  480.  502.        16    9412    339      8
##  5     251 Bear Riv…  483.  496.        17   14482    477      8
##  6     253 Stansbur…  483.  493.         2   14175    471      8
##  7     257 H-1. nea…  483.  494.         6   10248    315      8
##  8     258 SW Riche…  480.  502.        15    9412    339      8
##  9     270 SW Riche…  480.  502.         8    9412    339      8
## 10     271 Zones B …  480.  485.        22    5677    163      8
## # … with 8,683 more rows, and 40 more variables:
## #   strat_name_concept_id <dbl>, section_id <dbl>, project_id <dbl>,
## #   col_area <dbl>, unit_name <chr>, strat_name_id <dbl>, Mbr <chr>,
## #   Fm <chr>, Gp <chr>, SGp <chr>, max_thick <dbl>, min_thick <dbl>,
## #   outcrop <chr>, pbdb_collections <dbl>, pbdb_occurrences <dbl>,
## #   lith <chr>, environ <chr>, econ <chr>, measure <chr>, notes <chr>,
## #   color <chr>, text_color <chr>, t_int_id <dbl>, t_int_name <chr>,
## #   t_int_age <dbl>, t_prop <dbl>, units_above <chr>, b_int_id <dbl>,
## #   b_int_name <chr>, b_int_age <dbl>, b_prop <dbl>, units_below <dbl>,
…
